<svg width="165" height="249" viewBox="0 0 165 249" fill="none" xmlns="http://www.w3.org/2000/svg">
<path d="M69.5825 249C63.3821 249 56.8372 248.541 49.9478 247.624C43.0585 246.936 36.3987 245.905 29.9687 244.529C23.5386 243.153 17.6827 241.663 12.4008 240.058C7.119 238.453 2.98539 236.963 0 235.587L9.98956 192.941C15.9603 195.463 23.5386 198.214 32.7244 201.195C42.1399 203.946 53.737 205.322 67.5157 205.322C83.3612 205.322 94.9583 202.341 102.307 196.38C109.656 190.418 113.33 182.394 113.33 172.305C113.33 166.115 111.952 160.956 109.196 156.829C106.67 152.472 103.111 149.033 98.5178 146.511C93.9249 143.76 88.4134 141.925 81.9833 141.008C75.7829 139.862 69.1232 139.289 62.0042 139.289H42.0251V98.018H64.7599C69.8121 98.018 74.6347 97.5594 79.2276 96.6423C84.0501 95.7251 88.2985 94.2348 91.9729 92.1713C95.6472 89.8784 98.5178 86.8978 100.585 83.2293C102.881 79.3315 104.029 74.5166 104.029 68.7845C104.029 64.4282 103.111 60.645 101.273 57.4351C99.4363 54.2251 97.0251 51.5884 94.0397 49.5249C91.2839 47.4613 87.9541 45.971 84.0501 45.0539C80.3758 43.9075 76.5867 43.3343 72.6827 43.3343C62.8079 43.3343 53.6221 44.8246 45.1253 47.8052C36.858 50.7859 29.2798 54.4544 22.3904 58.8108L4.13361 21.3232C7.80793 19.0304 12.0564 16.6229 16.8789 14.1008C21.9311 11.5787 27.4426 9.28592 33.4134 7.22238C39.3841 5.15885 45.6994 3.43924 52.3591 2.06355C59.2484 0.68785 66.4823 0 74.0606 0C88.0689 0 100.125 1.71962 110.23 5.15886C120.564 8.3688 129.061 13.0691 135.72 19.2597C142.38 25.221 147.317 32.3287 150.532 40.5829C153.747 48.6077 155.355 57.4351 155.355 67.0649C155.355 76.4655 152.714 85.6367 147.432 94.5787C142.15 103.291 135.031 109.941 126.075 114.526C138.476 119.57 148.006 127.137 154.666 137.225C161.555 147.084 165 159.007 165 172.993C165 183.999 163.163 194.202 159.489 203.602C155.814 212.773 150.073 220.798 142.265 227.677C134.457 234.326 124.468 239.599 112.296 243.497C100.355 247.166 86.1169 249 69.5825 249Z" fill="#E3E5F0"/>
</svg>
